Obtain toilHub info for single gene — ope_toil_gene • UCSCXenaShiny
…
    a tibble

    Examples

# \donttest{
t <- ope_toil_gene()

#> Running mode: client
#> More info about dataset please run following commands:
#>   library(UCSCXenaTools)
#>   XenaGenerate(subset = XenaDatasets == "TcgaTargetGtex_rsem_gene_tpm") %>% XenaBrowse()
t

#> # A tibble: 19,044 x 8
#>    sample     primary_site detailed_category sample_type gender study expression
#>    <chr>      <chr>        <chr>             <fct>       <chr>  <chr>      <dbl>
#>  1 TCGA-V4-A… Eye          Uveal Melanoma    Primary Tu… Male   TCGA        5.62
#>  2 TCGA-VD-A… Eye          Uveal Melanoma    Primary Tu… Male   TCGA        4.84
#>  3 TCGA-V4-A… Eye          Uveal Melanoma    Primary Tu… Male   TCGA        5.42
#>  4 TCGA-VD-A… Eye          Uveal Melanoma    Primary Tu… Male   TCGA        5.79
#>  5 TCGA-WC-A… Eye          Uveal Melanoma    Primary Tu… Male   TCGA        4.98
#>  6 TCGA-WC-A… Eye          Uveal Melanoma    Primary Tu… Male   TCGA        4.88
#>  7 TCGA-WC-A… Eye          Uveal Melanoma    Primary Tu… Male   TCGA        4.75
#>  8 TCGA-YZ-A… Eye          Uveal Melanoma    Primary Tu… Male   TCGA        5.00
#>  9 TCGA-V4-A… Eye          Uveal Melanoma    Primary Tu… Male   TCGA        5.15
#> 10 TCGA-WC-A… Eye          Uveal Melanoma    Primary Tu… Male   TCGA        4.41
#> # … with 19,034 more rows, and 1 more variable: unit <chr>
…
